<svg width="10" height="16" viewBox="0 0 10 16" fill="none" xmlns="http://www.w3.org/2000/svg">
<path d="M7.33337 4.53475C8.04302 4.94423 8.63229 5.53339 9.0419 6.24296C9.45151 6.95252 9.66701 7.75745 9.66671 8.57675V13.9101H6.88671C6.74897 14.3004 6.49355 14.6385 6.15564 14.8776C5.81773 15.1167 5.41398 15.2451 5.00004 15.2451C4.5861 15.2451 4.18235 15.1167 3.84444 14.8776C3.50653 14.6385 3.25111 14.3004 3.11337 13.9101H0.333374V8.57675C0.333075 7.75745 0.548573 6.95252 0.958184 6.24296C1.36779 5.53339 1.95707 4.94423 2.66671 4.53475C2.55717 4.338 2.47315 4.12809 2.41671 3.91009H0.333374V2.57675H2.41737C2.56567 2.00459 2.89976 1.49787 3.3672 1.13614C3.83464 0.774399 4.40898 0.578125 5.00004 0.578125C5.59111 0.578125 6.16544 0.774399 6.63288 1.13614C7.10033 1.49787 7.43442 2.00459 7.58271 2.57675H9.66671V3.91009H7.58271C7.52604 4.13009 7.44138 4.34009 7.33404 4.53475H7.33337ZM6.36471 5.53475C5.96537 5.77342 5.49871 5.91009 5.00004 5.91009C4.51956 5.91081 4.0479 5.78109 3.63537 5.53475C3.04887 5.79803 2.551 6.22525 2.20171 6.76497C1.85243 7.30468 1.66663 7.93387 1.66671 8.57675V12.5768H3.00004V9.91009C3.00004 9.37965 3.21075 8.87095 3.58583 8.49587C3.9609 8.1208 4.46961 7.91009 5.00004 7.91009C5.53047 7.91009 6.03918 8.1208 6.41426 8.49587C6.78933 8.87095 7.00004 9.37965 7.00004 9.91009V12.5768H8.33337V8.57675C8.33345 7.93387 8.14765 7.30468 7.79837 6.76497C7.44909 6.22525 6.95121 5.79803 6.36471 5.53475ZM5.00004 9.24342C4.82323 9.24342 4.65366 9.31366 4.52864 9.43868C4.40361 9.56371 4.33337 9.73328 4.33337 9.91009V13.2434C4.33337 13.4202 4.40361 13.5898 4.52864 13.7148C4.65366 13.8399 4.82323 13.9101 5.00004 13.9101C5.17685 13.9101 5.34642 13.8399 5.47145 13.7148C5.59647 13.5898 5.66671 13.4202 5.66671 13.2434V9.91009C5.66671 9.73328 5.59647 9.56371 5.47145 9.43868C5.34642 9.31366 5.17685 9.24342 5.00004 9.24342ZM5.00004 4.57675C5.35366 4.57675 5.6928 4.43628 5.94285 4.18623C6.1929 3.93618 6.33337 3.59704 6.33337 3.24342C6.33337 2.8898 6.1929 2.55066 5.94285 2.30061C5.6928 2.05056 5.35366 1.91009 5.00004 1.91009C4.64642 1.91009 4.30728 2.05056 4.05723 2.30061C3.80718 2.55066 3.66671 2.8898 3.66671 3.24342C3.66671 3.59704 3.80718 3.93618 4.05723 4.18623C4.30728 4.43628 4.64642 4.57675 5.00004 4.57675Z" fill="#09121F"/>
</svg>
