<svg width="40" height="40" viewBox="0 0 40 40" fill="none" xmlns="http://www.w3.org/2000/svg">
<path d="M14.17 26C14.3766 25.4145 14.7597 24.9074 15.2666 24.5488C15.7735 24.1902 16.3791 23.9976 17 23.9976C17.6209 23.9976 18.2265 24.1902 18.7334 24.5488C19.2403 24.9074 19.6234 25.4145 19.83 26H30V28H19.83C19.6234 28.5855 19.2403 29.0926 18.7334 29.4512C18.2265 29.8099 17.6209 30.0025 17 30.0025C16.3791 30.0025 15.7735 29.8099 15.2666 29.4512C14.7597 29.0926 14.3766 28.5855 14.17 28H10V26H14.17ZM20.17 19C20.3766 18.4145 20.7597 17.9074 21.2666 17.5488C21.7735 17.1902 22.3791 16.9976 23 16.9976C23.6209 16.9976 24.2265 17.1902 24.7334 17.5488C25.2403 17.9074 25.6234 18.4145 25.83 19H30V21H25.83C25.6234 21.5855 25.2403 22.0926 24.7334 22.4512C24.2265 22.8099 23.6209 23.0025 23 23.0025C22.3791 23.0025 21.7735 22.8099 21.2666 22.4512C20.7597 22.0926 20.3766 21.5855 20.17 21H10V19H20.17ZM14.17 12C14.3766 11.4145 14.7597 10.9074 15.2666 10.5488C15.7735 10.1902 16.3791 9.99756 17 9.99756C17.6209 9.99756 18.2265 10.1902 18.7334 10.5488C19.2403 10.9074 19.6234 11.4145 19.83 12H30V14H19.83C19.6234 14.5855 19.2403 15.0926 18.7334 15.4512C18.2265 15.8099 17.6209 16.0025 17 16.0025C16.3791 16.0025 15.7735 15.8099 15.2666 15.4512C14.7597 15.0926 14.3766 14.5855 14.17 14H10V12H14.17ZM17 14C17.2652 14 17.5196 13.8947 17.7071 13.7071C17.8946 13.5196 18 13.2652 18 13C18 12.7348 17.8946 12.4804 17.7071 12.2929C17.5196 12.1054 17.2652 12 17 12C16.7348 12 16.4804 12.1054 16.2929 12.2929C16.1054 12.4804 16 12.7348 16 13C16 13.2652 16.1054 13.5196 16.2929 13.7071C16.4804 13.8947 16.7348 14 17 14ZM23 21C23.2652 21 23.5196 20.8947 23.7071 20.7071C23.8946 20.5196 24 20.2652 24 20C24 19.7348 23.8946 19.4804 23.7071 19.2929C23.5196 19.1054 23.2652 19 23 19C22.7348 19 22.4804 19.1054 22.2929 19.2929C22.1054 19.4804 22 19.7348 22 20C22 20.2652 22.1054 20.5196 22.2929 20.7071C22.4804 20.8947 22.7348 21 23 21ZM17 28C17.2652 28 17.5196 27.8947 17.7071 27.7071C17.8946 27.5196 18 27.2652 18 27C18 26.7348 17.8946 26.4804 17.7071 26.2929C17.5196 26.1054 17.2652 26 17 26C16.7348 26 16.4804 26.1054 16.2929 26.2929C16.1054 26.4804 16 26.7348 16 27C16 27.2652 16.1054 27.5196 16.2929 27.7071C16.4804 27.8947 16.7348 28 17 28Z" fill="#666666"/>
</svg>
