<svg width="24" height="25" viewBox="0 0 24 25" fill="none" xmlns="http://www.w3.org/2000/svg">
<rect y="0.910645" width="24" height="24" rx="12" fill="#D73133"/>
<path d="M15.75 15.3436V20.4976C15.75 20.564 15.7324 20.6292 15.699 20.6865C15.6656 20.7438 15.6176 20.7913 15.5599 20.824C15.5022 20.8567 15.4368 20.8735 15.3705 20.8727C15.3041 20.8719 15.2392 20.8535 15.1823 20.8194L12 18.9099L8.81775 20.8194C8.76078 20.8535 8.69577 20.8719 8.62936 20.8727C8.56295 20.8735 8.49753 20.8566 8.43978 20.8238C8.38204 20.791 8.33404 20.7434 8.30069 20.686C8.26735 20.6286 8.24985 20.5633 8.25 20.4969V15.3444C7.27961 14.5675 6.57449 13.5083 6.23209 12.3133C5.88969 11.1183 5.92692 9.84643 6.33862 8.6735C6.75032 7.50056 7.51617 6.48445 8.53034 5.7656C9.5445 5.04675 10.7569 4.66064 12 4.66064C13.2431 4.66064 14.4555 5.04675 15.4697 5.7656C16.4838 6.48445 17.2497 7.50056 17.6614 8.6735C18.0731 9.84643 18.1103 11.1183 17.7679 12.3133C17.4255 13.5083 16.7204 14.5675 15.75 15.3444V15.3436ZM12 15.1599C13.1935 15.1599 14.3381 14.6858 15.182 13.8419C16.0259 12.998 16.5 11.8534 16.5 10.6599C16.5 9.46642 16.0259 8.32183 15.182 7.47791C14.3381 6.634 13.1935 6.15989 12 6.15989C10.8065 6.15989 9.66193 6.634 8.81802 7.47791C7.97411 8.32183 7.5 9.46642 7.5 10.6599C7.5 11.8534 7.97411 12.998 8.81802 13.8419C9.66193 14.6858 10.8065 15.1599 12 15.1599ZM12 13.6599C11.2044 13.6599 10.4413 13.3438 9.87868 12.7812C9.31607 12.2186 9 11.4555 9 10.6599C9 9.86424 9.31607 9.10118 9.87868 8.53857C10.4413 7.97596 11.2044 7.65989 12 7.65989C12.7956 7.65989 13.5587 7.97596 14.1213 8.53857C14.6839 9.10118 15 9.86424 15 10.6599C15 11.4555 14.6839 12.2186 14.1213 12.7812C13.5587 13.3438 12.7956 13.6599 12 13.6599Z" fill="white"/>
</svg>
